<svg xmlns="http://www.w3.org/2000/svg" viewBox="0 0 180 180">
  <path d="M74.9 19.9c2.7 0 5.3.4 7.9 1.1 9.8 2.8 15.4 8.6 17.6 18 1.1 4.7 2.3 8.9 3.7 12.7 1.2 3.2 3.3 5.6 4.9 7.2 1.6 1.5 3.7 1.9 5.2 1.9 1 0 2.9-.2 4.5-1.2 3.2-2 3.6-6.8 2.6-9.3-1.4-3.7-2.9-7.4-4.4-11 3.8 1.9 7 4.9 9.5 9.1 4.1 6.9 5.7 14.8 7 23l.6 3.3c.7 4.1 1.4 8.3 1.9 12.4 0 .3 0 .8-.1 1-11.7 19.2-27.4 35-46.6 46.8-13-4.1-26.8-9-39.1-16.2-5.1-3-9.8-6.2-14.1-9.6-13.4-10.8-18-23.7-14.2-39.6C28 44.3 41.9 28.6 64.5 21.6c3.5-1.1 7.1-1.7 10.4-1.7m0-5c-4.1 0-8.1.7-12 1.9C37.4 24.8 23 43 16.8 68.3c-4.5 18.3 1.5 33.1 15.9 44.7 4.6 3.7 9.6 7.1 14.7 10 12.7 7.4 26.5 12.3 40.5 16.7.3.1.7.2 1.1.2.9 0 1.9-.3 2.7-.7 20-12.3 36.2-28.5 48.4-48.6.7-1.1.9-2.8.8-4.2-.7-5.3-1.6-10.6-2.5-15.9-1.4-8.6-3.1-17.1-7.7-24.7-4.7-7.8-11.5-12.4-20.4-13.7-.5.3-.9.6-1.4.8 2.6 6.4 5.3 12.7 7.8 19.1.4.9 0 2.8-.6 3.2-.4.3-1.2.4-1.9.4s-1.4-.1-1.7-.5c-1.5-1.5-2.9-3.3-3.6-5.3-1.5-3.9-2.6-8-3.6-12.1-2.7-11.5-9.9-18.5-21-21.7-3.2-.6-6.3-1.1-9.4-1.1zM146.4 100.7c8 6 13.5 13.5 16.7 23 .2.7.1 2.3-.4 3.3-8.1 15.6-20 27.4-35.3 35.2-.4.2-1.2.4-2.2.4-.8 0-1.6-.1-2.2-.3-8.9-3.4-16-8.8-21.4-16.5 17.9-12.2 32.7-27 44.8-45.1m-1.4-7c-13.2 20.9-30 37.6-50.5 50.7 6.4 10.7 15.2 18.3 26.6 22.6 1.2.4 2.6.7 4 .7 1.6 0 3.3-.3 4.5-.9 16.5-8.4 29-21 37.5-37.4 1.1-2 1.4-5.1.7-7.2-4-12.2-11.7-21.6-22.8-28.5z">
  </path>
</svg>
